-------------------------------------------------------------------------------
Test set: StartPageTest
-------------------------------------------------------------------------------
Tests run: 2, Failures: 0, Errors: 0, Skipped: 0, Time elapsed: 3.624 sec
